albero.aggiungiRadice(70);                                                      
albero.aggiungiFiglio(albero.getRadice(), 37);                
albero.aggiungiFiglio(albero.getRadice(), 76);                      
albero.aggiungiFiglio(albero.getNodo("0"), 29);    
albero.aggiungiFiglio(albero.getNodo("0"), 56);        
albero.aggiungiFiglio(albero.getNodo("1"), 82);              
albero.aggiungiFiglio(albero.getNodo("0,0"), 21); 
albero.aggiungiFiglio(albero.getNodo("0,0"), 35);
albero.aggiungiFiglio(albero.getNodo("0,1"), 42);
albero.aggiungiFiglio(albero.getNodo("0,1"), 60);
albero.aggiungiFiglio(albero.getNodo("1,0"), 85);
albero.aggiungiFiglio(albero.getNodo("0,0,0"), 15);
albero.aggiungiFiglio(albero.getNodo("0,1,0"), 41);
albero.aggiungiFiglio(albero.getNodo("0,1,0"), 47);
albero.aggiungiFiglio(albero.getNodo("1,0,0"), 97);